<?xml version="1.0" encoding="UTF-8"?>
<testng-results skipped="0" failed="0" ignored="0" total="6" passed="6">
  <reporter-output>
    <line>
      <![CDATA[接口地址：https://reqres.in/api/users]]>
    </line>
    <line>
      <![CDATA[JSON：{"job":"tester","name":"Anthony"}]]>
    </line>
    <line>
      <![CDATA[状态码：201]]>
    </line>
    <line>
      <![CDATA[接口响应：{"job":"tester","name":"Anthony","id":"505","createdAt":"2018-12-20T09:28:52.134Z"}]]>
    </line>
    <line>
      <![CDATA[接口地址：https://reqres.in/api/users?page=2]]>
    </line>
    <line>
      <![CDATA[状态码：200]]>
    </line>
    <line>
      <![CDATA[接口响应：{"page":2,"per_page":3,"total":12,"total_pages":4,"data":[{"id":4,"first_name":"Eve","last_name":"Holt","avatar":"https://s3.amazonaws.com/uifaces/faces/twitter/marcoramires/128.jpg"},{"id":5,"first_name":"Charles","last_name":"Morris","avatar":"https://s3.amazonaws.com/uifaces/faces/twitter/stephenmoon/128.jpg"},{"id":6,"first_name":"Tracey","last_name":"Ramos","avatar":"https://s3.amazonaws.com/uifaces/faces/twitter/bigmancho/128.jpg"}]}]]>
    </line>
    <line>
      <![CDATA[接口地址：https://reqres.in/api/users?page=2]]>
    </line>
    <line>
      <![CDATA[状态码：200]]>
    </line>
    <line>
      <![CDATA[接口响应：{"page":2,"per_page":3,"total":12,"total_pages":4,"data":[{"id":4,"first_name":"Eve","last_name":"Holt","avatar":"https://s3.amazonaws.com/uifaces/faces/twitter/marcoramires/128.jpg"},{"id":5,"first_name":"Charles","last_name":"Morris","avatar":"https://s3.amazonaws.com/uifaces/faces/twitter/stephenmoon/128.jpg"},{"id":6,"first_name":"Tracey","last_name":"Ramos","avatar":"https://s3.amazonaws.com/uifaces/faces/twitter/bigmancho/128.jpg"}]}]]>
    </line>
    <line>
      <![CDATA[接口地址：https://reqres.in/api/users/2]]>
    </line>
    <line>
      <![CDATA[JSON：{"job":"automation tester","name":"Anthony"}]]>
    </line>
    <line>
      <![CDATA[状态码：200]]>
    </line>
    <line>
      <![CDATA[接口响应：{"job":"automation tester","name":"Anthony","updatedAt":"2018-12-20T09:28:53.944Z"}]]>
    </line>
    <line>
      <![CDATA[接口地址：https://reqres.in/api/users/2]]>
    </line>
    <line>
      <![CDATA[状态码：204]]>
    </line>
  </reporter-output>
  <suite name="Default Suite" duration-ms="4671" started-at="2018-12-20T17:25:29 CST" finished-at="2018-12-20T17:25:34 CST">
    <groups>
    </groups>
    <test name="Api_AutoFramwork" duration-ms="4671" started-at="2018-12-20T17:25:29 CST" finished-at="2018-12-20T17:25:34 CST">
      <class name="com.qa.tests.testCase1">
        <test-method status="PASS" signature="setUp()[pri:0, instance:com.qa.tests.testCase1@1c3a4799]" name="setUp" is-config="true" duration-ms="1" started-at="2018-12-20T17:25:32 CST" finished-at="2018-12-20T17:25:32 CST">
          <reporter-output>
          </reporter-output>
        </test-method> <!-- setUp -->
        <test-method status="PASS" signature="login(java.lang.String, java.lang.String, java.lang.String)[pri:0, instance:com.qa.tests.testCase1@1c3a4799]" name="login" duration-ms="701" started-at="2018-12-20T17:25:33 CST" data-provider="postData" finished-at="2018-12-20T17:25:33 CST">
          <params>
            <param index="0">
              <value>
                <![CDATA[/api/login]]>
              </value>
            </param>
            <param index="1">
              <value>
                <![CDATA[peter@klaven]]>
              </value>
            </param>
            <param index="2">
              <value>
                <![CDATA[cityslicka]]>
              </value>
            </param>
          </params>
          <reporter-output>
          </reporter-output>
        </test-method> <!-- login -->
        <test-method status="PASS" signature="endTest()[pri:0, instance:com.qa.tests.testCase1@1c3a4799]" name="endTest" is-config="true" duration-ms="1" started-at="2018-12-20T17:25:33 CST" finished-at="2018-12-20T17:25:34 CST">
          <reporter-output>
          </reporter-output>
        </test-method> <!-- endTest -->
      </class> <!-- com.qa.tests.testCase1 -->
      <class name="com.qa.tests.DeleteApiTest">
        <test-method status="PASS" signature="setUp()[pri:0, instance:com.qa.tests.DeleteApiTest@694e1548]" name="setUp" is-config="true" duration-ms="1" started-at="2018-12-20T17:25:32 CST" finished-at="2018-12-20T17:25:32 CST">
          <reporter-output>
          </reporter-output>
        </test-method> <!-- setUp -->
        <test-method status="PASS" signature="deleteApiTest()[pri:0, instance:com.qa.tests.DeleteApiTest@694e1548]" name="deleteApiTest" duration-ms="573" started-at="2018-12-20T17:25:32 CST" finished-at="2018-12-20T17:25:32 CST">
          <reporter-output>
            <line>
              <![CDATA[接口地址：https://reqres.in/api/users/2]]>
            </line>
            <line>
              <![CDATA[状态码：204]]>
            </line>
          </reporter-output>
        </test-method> <!-- deleteApiTest -->
      </class> <!-- com.qa.tests.DeleteApiTest -->
      <class name="com.qa.tests.PostApiTest">
        <test-method status="PASS" signature="setUp()[pri:0, instance:com.qa.tests.PostApiTest@76707e36]" name="setUp" is-config="true" duration-ms="8" started-at="2018-12-20T17:25:29 CST" finished-at="2018-12-20T17:25:29 CST">
          <reporter-output>
          </reporter-output>
        </test-method> <!-- setUp -->
        <test-method status="PASS" signature="postApiTest()[pri:0, instance:com.qa.tests.PostApiTest@76707e36]" name="postApiTest" duration-ms="1220" started-at="2018-12-20T17:25:29 CST" finished-at="2018-12-20T17:25:30 CST">
          <reporter-output>
            <line>
              <![CDATA[接口地址：https://reqres.in/api/users]]>
            </line>
            <line>
              <![CDATA[JSON：{"job":"tester","name":"Anthony"}]]>
            </line>
            <line>
              <![CDATA[状态码：201]]>
            </line>
            <line>
              <![CDATA[接口响应：{"job":"tester","name":"Anthony","id":"505","createdAt":"2018-12-20T09:28:52.134Z"}]]>
            </line>
          </reporter-output>
        </test-method> <!-- postApiTest -->
      </class> <!-- com.qa.tests.PostApiTest -->
      <class name="com.qa.tests.GetApiTest">
        <test-method status="PASS" signature="setUp()[pri:0, instance:com.qa.tests.GetApiTest@614ddd49]" name="setUp" is-config="true" duration-ms="1" started-at="2018-12-20T17:25:30 CST" finished-at="2018-12-20T17:25:30 CST">
          <reporter-output>
          </reporter-output>
        </test-method> <!-- setUp -->
        <test-method status="PASS" signature="getApiTest()[pri:0, instance:com.qa.tests.GetApiTest@614ddd49]" name="getApiTest" duration-ms="586" started-at="2018-12-20T17:25:30 CST" finished-at="2018-12-20T17:25:31 CST">
          <reporter-output>
            <line>
              <![CDATA[接口地址：https://reqres.in/api/users?page=2]]>
            </line>
            <line>
              <![CDATA[状态码：200]]>
            </line>
            <line>
              <![CDATA[接口响应：{"page":2,"per_page":3,"total":12,"total_pages":4,"data":[{"id":4,"first_name":"Eve","last_name":"Holt","avatar":"https://s3.amazonaws.com/uifaces/faces/twitter/marcoramires/128.jpg"},{"id":5,"first_name":"Charles","last_name":"Morris","avatar":"https://s3.amazonaws.com/uifaces/faces/twitter/stephenmoon/128.jpg"},{"id":6,"first_name":"Tracey","last_name":"Ramos","avatar":"https://s3.amazonaws.com/uifaces/faces/twitter/bigmancho/128.jpg"}]}]]>
            </line>
          </reporter-output>
        </test-method> <!-- getApiTest -->
        <test-method status="PASS" signature="getApiTest02()[pri:0, instance:com.qa.tests.GetApiTest@614ddd49]" name="getApiTest02" duration-ms="575" started-at="2018-12-20T17:25:31 CST" finished-at="2018-12-20T17:25:31 CST">
          <reporter-output>
            <line>
              <![CDATA[接口地址：https://reqres.in/api/users?page=2]]>
            </line>
            <line>
              <![CDATA[状态码：200]]>
            </line>
            <line>
              <![CDATA[接口响应：{"page":2,"per_page":3,"total":12,"total_pages":4,"data":[{"id":4,"first_name":"Eve","last_name":"Holt","avatar":"https://s3.amazonaws.com/uifaces/faces/twitter/marcoramires/128.jpg"},{"id":5,"first_name":"Charles","last_name":"Morris","avatar":"https://s3.amazonaws.com/uifaces/faces/twitter/stephenmoon/128.jpg"},{"id":6,"first_name":"Tracey","last_name":"Ramos","avatar":"https://s3.amazonaws.com/uifaces/faces/twitter/bigmancho/128.jpg"}]}]]>
            </line>
          </reporter-output>
        </test-method> <!-- getApiTest02 -->
      </class> <!-- com.qa.tests.GetApiTest -->
      <class name="com.qa.tests.PutApiTest">
        <test-method status="PASS" signature="setUp()[pri:0, instance:com.qa.tests.PutApiTest@1f554b06]" name="setUp" is-config="true" duration-ms="0" started-at="2018-12-20T17:25:31 CST" finished-at="2018-12-20T17:25:31 CST">
          <reporter-output>
          </reporter-output>
        </test-method> <!-- setUp -->
        <test-method status="PASS" signature="putApiTest()[pri:0, instance:com.qa.tests.PutApiTest@1f554b06]" name="putApiTest" duration-ms="582" started-at="2018-12-20T17:25:31 CST" finished-at="2018-12-20T17:25:32 CST">
          <reporter-output>
            <line>
              <![CDATA[接口地址：https://reqres.in/api/users/2]]>
            </line>
            <line>
              <![CDATA[JSON：{"job":"automation tester","name":"Anthony"}]]>
            </line>
            <line>
              <![CDATA[状态码：200]]>
            </line>
            <line>
              <![CDATA[接口响应：{"job":"automation tester","name":"Anthony","updatedAt":"2018-12-20T09:28:53.944Z"}]]>
            </line>
          </reporter-output>
        </test-method> <!-- putApiTest -->
      </class> <!-- com.qa.tests.PutApiTest -->
    </test> <!-- Api_AutoFramwork -->
  </suite> <!-- Default Suite -->
</testng-results>
